      _____            | 
                     .-'     `-.         | 
                    /        /  \        | 
                   /    __.-'    \       | 
                  /  .-'     \    .      | 
                 /  /         \   |      | 
                 | .__    ___  \  |      | 
                /\ |___   ___   |/\      | 
               /   |`o' |/`o'    ; |     | 
               |  ||              /      | 
              /   ||   --'      /'|      | 
              |  /  \ .----.    | /      | 
              | |\ | \ `--'   _ |/       | 
              \ || | |`\___.-'  |        | 
            .' \|\ \ .----.    /         | 
           / /  |\| /      \   |---._    | 
          /        /        \  |     `\  | 
          |       /          \ |       \ | 
          |/     /             |        \ 
          /   .-'             \          : 
         / --' |                         \ 
        .'     |     _.        \    .\    : 
       ' /    /       \        :   ( _____.----. 
      |  /__.'         \        \   /      \    \ 
      |   |   |        '\       :  /        \    \ 
      \    \|/|       . `        \/          \    | 
       \      _\      '  \        \          |    | 
       |  |  |            \       :          \    ` 
       \/ \  _\            \       \   /      |    | 
        \  `/           `-.-\       \ |       |    | 
         `-'\               /\       \        |    ` 
            |              / |        \       |     | 
            |             /   \        \      |     | 
            \            /     \        \     |     | 
             |          /       \        \    \     | 
             |         .         \        \    |    | 
             `.        /          \        \   |    | 
              |       :            `\       \  |    |\ 
              |      /               \       \ |    | \ 
              |     /                 `\      \|    |  \ 
              |     |                 | \      \    |   : 
             /     /                  | |`\     `.  | ) \ 
             |                        ' \  \      \ |/   | 
             |                       /   \  `\     \|    | 
             |                      /    |    \.    | /  /         _ 
             |                     /    / \    (    //> |      _.-' 
             `                    /    /   )    \___U   |   .-' 
           .-'\                  /__.-'   /     <___.-'//.-' 
        .-'    \                /        /  \   .<----'/ 
     .-'        `-. :F_P:  ___.'    8=>     \   `-'  `---'\ 
    '              `------'               `.        | \| 
                                         _.-\       \  | 
                                     _.-'    \       . \ 
                                  .-'         \      |  \ 
                             __.-'             \     |   | 
                       __.--'                   \    |  \| 
                    .-'                          \/|||  \| 
                  -'                              `--'\_/ 

                             . ...
                         .''.' .    '.
                    . '' ".'.:I:.'..  '.
                  .'.:.:..,,:II:'.'.'.. '.
                .':.'.:.:I:.:II:'.'.'.'.. '.
              .'.'.'.'::.:.:.:I:'.'.'.'. .  '
             ..'.'.'.:.:I::.:II:.'..'.'..    .
            ..'.'':.:.::.:.::II::.'.'.'.'..   .
           ..'.'.'.:.::. .:::II:..'.'.'.'.'.   .
          .':.''.':'.'.'.:.:I:'.'.'.'.'.. '..  ..
          ':. '.':'. ..:.::.::.:.'..'  ':.'.'.. ..
         .:.:.':'.   '.:':I:.:.. .'.'.  ': .'.. . ..
         '..:.:'.   .:.II:.:..   . .:.'. '.. '. .  ..
        .. :.:.'.  .:.:I:.:. .  . ..:..:. :..':. .  '.
       .:. :.:.   .:.:I:.:. .    . ..:I::. :: ::  .. ..
       .. :'.'.:. .:.:I:'.        ..:.:I:. :: ::.   . '.
       '..:. .:.. .:II:'         ,,;IIIH.  ::. ':.      .
      .:.::'.:::..:.AII;,      .::",,  :I .::. ':.       .
      :..:'.:II:.:I:  ,,;'   ' .;:FBT"X:: ..:.. ':.    . .
     .. :':III:. :.:A"PBF;.  . .P,IP;;":: :I:..'::. .    ..
     . .:.:II: A.'.';,PP:" .  . ..'..' .: :.::. ':...  . ..
     . .: .:IIIH:.   ' '.' .  ... .    .:. :.:.. :...    .'
     . .I.::I:IIA.        ..   ...    ..::.'.'.'.: ..  . .
      .:II.'.':IA:.      ..    ..:.  . .:.: .''.'  ..  . .
     ..::I:,'.'::A:.  . .:'-, .-.:..  .:.::AA.. ..:.' .. .
      ':II:I:.  ':A:. ..:'   ''.. . : ..:::AHI: ..:..'.'.
     .':III.::.   'II:.:.,,;;;:::::". .:::AHV:: .::'' ..
     ..":IIHI::. .  "I:..":;,,,,;;". . .:AII:: :.:'  . .
     . . IIHHI:..'.'.'V::. ":;;;"   ...:AIIV:'.:.'  .. .
      . . :IIHI:. .:.:.V:.   ' ' . ...:HI:' .:: :. .  ..
      . .  ':IHII:: ::.IA..      .. .A .,,:::' .:.    .
      :.  ...'I:I:.: .,AHHA, . .'..AHIV::' . .  :     ..
      :. '.::::II:.I:.HIHHIHHHHHIHHIHV:'..:. .I.':. ..  '.
   . . .. '':::I:'.::IHHHHHHHHMHMHIHI. '.'.:IHI..  '  '  '.
    ':... .  ''" .::'.HMHI:HHHHMHHIHI. :IIHHII:. . . .    .
     :.:.. . ..::.' .IV".:I:IIIHIHHIH. .:IHI::'.': '..  .  .
   . .:.:: .. ::'.'.'..':.::I:I:IHHHIA.'.II.:...:' .' ... . '..
  '..::::' ...::'.IIHII:: .:.:..:..:III:.'::' .'    .    ..  . .
  '::.:' .''     .. :IIHI:.:.. ..: . .:I:"' ...:.:.  ..    .. ..
     .:..::I:.  . . . .IHII:.:'   .. ..".::.:II:.:. .  ...   . ..
  .. . .::.:.,,...-::II:.:'    . ...... . .. .:II:.::  ...  .. ..
   ..:.::.I .    . . .. .:. .... ...:.. . . ..:.::.   :..   . ..
    .'.::I:.      . .. ..:.... . ..... .. . ..::. .. .I:. ..' .
  .'':.: I.       . .. ..:.. .  . .. ..... .:. .:.. .:I.'.''..
  . .:::I:.       . . .. .:. .    .. ..  . ... .:.'.'I'  .  ...
  . ::.:I:..     . . . ....:. . .   .... ..   .:...:.:.:. ''.''
  '.'::'I:.       . .. ....:. .     .. . ..  ..'  .'.:..:..    '
        :. .     . .. .. .:.... .  .  .... ...   .  .:.:.:..    '.
        :.      .  . . .. .:.... . . ........       .:.:.::. .    .
        :. .     . . . . .. .::..:  . ..:.. .        ::.:.:.. .    .
        :.. .    . . .  . .. ..:.:  .. .. .:. ..     ':::.::.:. .   .
        ':.. .  . . . .. .. ...::' .. ..  . .:. .     V:I:::::.. .   :.
         ::. .  . .. .. ... .:.::  .. .  . .. .. .     VI:I:::::..   ''B
          :.. .   . .. ..:.. ..I:... . .  . .. ... .    VII:I:I:::. .'::
          ':.. . . . .. ..:..:.:I:.:. .  . .. . .:. .    VHIII:I::.:..':
           ::..   . . .. ..:..:.HI:. .      . . .... .   :HHIHIII:I::..:
           ':. .  . .. .. ..:.:.:HI:.    . . .. ..... .   HHHHIHII:I::.'
            :.. .  . . .. .:.:.:.HI:.      . . .. ... .   IHHHHIHHIHI:'
             :..  .  . . .. ..:..IH:.     . . .. .. ,,, . 'HHHHHHHHI:'
             ':..   . . .. ..:.:.:HI..   .  . .. . :::::.  MIH:"""'
              :. . .  . .. ..::.:.VI:.     . . .. .:::'::. HIH
               :..  .  . .. .:.:.:.V:.    . . . ...::I"A:. HHV
                :. .  .  . .. ..:.:.V:.     . . ....::I::'.HV:
                 :. .  . . . .. .:..II:.  . . . ....':::' AV.'
                  :.. . . .. ... .:..VI:. . . .. .:. ..:.AV'.
                  ':.. . .  .. ..:.:.:HAI:.:...:.:.:.:.AII:.
                   I:. .  .. ... .:.:.VHHII:..:.:..:A:'.:..
                   IA..  . . .. ..:.:.:VHHHHIHIHHIHI:'.::.
                   'HA:.  . . .. ..:.:.:HHHIHIHHHIHI:..:.
                    HIA: .  . . .. ...:.VHHHIHIIHI::.:...
                    HIHI:. .  .. ... .::.HHHIIHIIHI:::..
                    HII:.:.  .  .. ... .::VHHIHI:I::.:..
                    AI:..:..  .  . .. ..:.VHIII:I::.:. .
                   AI:. ..:..  .  . .. ..' VHIII:I;... .
                  AI:. .  .:.. .  .  . ...  VHIII::... .
                .A:. .      :.. .  . .. .:.. VHII::..  .
               A:. . .       ::. .. .. . .:.. "VHI::.. .
             .:.. .  .        :.. .:..... .::.. VHI:..
            ... . .  .     . . :.:. ..:. . .::.. VI:..  .
           .. .. .  .    . . ...:... . .. . .:::. V:..  .
          '.. ..  .   .  .. ..:::.... .:. . ..::.. V..  .
        . . .. . .   . . .. ..:::A. ..:. . . .::.. :..
       . .. .. .. . .  . ... ..::IA.. .. . .  ..::. :..  .
      .. .. ... . .  .. .... .:.::IA. . .. . ..:.::. :.  .
     . . . .. .   . . .. ..:..:.::IIA. . .  .. .:.::. :. .
    .. . .  .   . . .. ... ..:.::I:IHA. .  . . ..:.::. . .
   .: ..  .  .   . . ... .:.. .:I:IIHHA. .  . .. .::I:. .
  .::.  .     . . .. ..:. .::.:IIHIIHHHA.  .  .. ..:I:. . .
  A::..      .  .  ...:..:.::I:IHIHIHHHHA.  .  . ..::I:. .
 :HI:.. .       . .. .:.:.::I:IHIHIIHIHHHA. .   .. .::I:. ..
 AI:.. .. .    . .. .:.:.::II:IHIIIHIHIHHHA.  .  . ..::I:. ..
:HI:.. . .   .  . .. .::.:I:IHIHIIIHIHIIHHHA..  . .. .::I:. ..
AI:.:.. .  .  .  ... .::.::I:IHIIHIHIHIHIHIHHA. .  . ..::I:. .
HI:. .. . .  .  . .. .:..::IIHIHIHIIIIWHIIHHMWA.  . . .:::I:. . .
HI:.. . .  .   . .. ..:.::I:IIHHIIHIHIHIHHMMW"  '.. . ..:::II: . .
HI::.. .  .   .  .. .:..:::IIHIHIIWIWIIWMWW" .    .. . ..::III: .  .
HI::... . . .  . ... ..:.:::IIHIWIWIWMWMWW. .  .   . .. .:.:III. .   .
II::.:.. . .  .  .. ......:..IHWHIWWMWMW".. . . . . '... .:.:IHI:..    .
II:I::.. .  .   .  . .....::.:IHWMWWWMW:.. .  .  . .  .:..:::IIHII..
:II:.:.:.. .  .   . ......:.:.:IWWMWWW:.:.. .  .  .  . :...:.:IHHI:..
 HI::.:. . . .  .  . ...:.::.::.VWMWW::.:.:.. .  . .. . :.. ..:IHHI::.'-
 HII::.:.. .  .  . .. .:..:.'.  'WWWI::.::.:.. . .  . .. ':...:II:IIII::
 III::.:... .  .  . ...:.:... .   WII:I::.:.. .  .  .. . . :.:::...::.::
  VII::.:.. . . . .. ...:....      VHI:I::.:.. .  . ... .. .::.:..:.:..:
   VII::.:.. . .  . ..:.::.. .     :HHII:I::.:.. . . .. ..  .'::':......
   III:I::.. .. . . .. .:.:.. .    :VHIHI:I::.:... . . .. .. .':. .. .AH
  AA:II:I::.. . . .  .. ..:.. . .  ::HHIHII:I::.:... .. .. ... .:.::AHHH
 AHH:I:I::.:.. .  . .. ..:.:.. .   ::VHHHVHI:I::.:.:.. ..:. .::.A:.AHHHM
 HHHAII:I::.:.. . . . .. ..:.. . . :::HIHIHIHII:I::.:.. .. .:. ..AHHMMM:
AHHHH:II:I::.:.. . . .. ..:.:.. . .:I:MMIHHHIHII:I:::.:. ..:.:.AHHHMMM:M
HHHHHA:II:I::.. .. . . .. .:... . .:IIVMMMHIHHHIHII:I::. . .. AHHMMMM:MH
HHHHHHA:I:I:::.. . . . ... ..:.. ..:IHIVMMHHHHIHHHIHI:I::. . AHMMMMM:HHH
HHHHHMM:I::.:.. . . . .. ...:.:...:IIHHIMMHHHII:.:IHII::.  AHMMMMMM:HHHH
HHHHHMMA:I:.:.:.. . . . .. ..:.:..:IIHHIMMMHHII:...:::.:.AHMMMMMMM:HHHHH
HHHHHMMMA:I::... . . . . .. ..:.::.:IHHHIMMMHI:.:.. .::AHMMMMMMM:HHHHHHH
VHHHHMMMMA:I::.. . .  . . .. .:.::I:IHHHIMMMMHI:.. . AHMMMMMMMM:HHHHHHHH
 HHHMMMMMM:I:.:.. . .  . . ...:.:IIHIHHHIMMMMMHI:.AHMMMMMMMMM:HHHHHHHHHH
 HHHHMMMMMA:I:.:.. .  .  . .. .:IIHIHHHHIMMMMMH:AMMMMMMMMMMM:HHHHHHHHHHH
 VHHHMMMMMMA:I:::.:. . . . .. .:IHIHHHHHIMMMV"AMMMMMMMMMMMM:HHHHHHHHHHHH
  HHHHHMMMMMA:I::.. .. .  . ...:.:IHHHHHHIM"AMMMMMMMMMMMM:HHHHHHHHHHHHHH
  VHHHHHMMMMMA:I:.:.. . . .  .. .:IHIHHHHI:AMMMMMMMMMMMIHHHHHHHHHHHHHHHH
   VHHHHHMMMMMA:I::.:. . .  .. .:.:IHHHV:MMMMMIMMMMMMMMMMMMMHHHHHHHHV::.
    VHHHHMMMMMMA:::.:..:.. . .. .:::AMMMMMMMM:IIIIIHHHHHHHHHHHHHHHV:::..
     HHHHHMMMIIIA:I::.:.:..:... AMMMMMMMMMM:IIIIIIHHHHHHHHHHHHHHHV::::::
     VHHHHMMIIIIMA:I::::.::..AMMMMMMMMMMM:IIIIIIIHHHHHHHHHHHHHHV::::::::
      HHHHMIIIIMMMA:II:I::AIIIMMMMMMMMMM:IIIIIIIHHHHHHHHHHHHHHV:::::::::
      VHHHHIIIMMMMMMA:I:AIIIIIIMMMMMM:IIIIIIIIHHHHHHHHHHHHHHV::::::::"'
       HHHHHIIMMMMMMIMAAIIIIIIIIMMM:IIIIIIIIHHHHHHHHHHHHHHHV:::::""'
       VHHHIIIIMMMMIIIIIIIIIIIIII:IIIIIIIIHHHHHHHHHHHHHHHV::""'
        VHHIIIMMMMMIIIIIIIIIIIIIIIIIIIIIHHHHHHHHHHHHHHHV
         VHHIMMMMMMMIIIIIIIIIIIIIIIIIHHHHHHHHHHHHHV
          VHHHMMMMMMMMIIIIIIIIIIIHHHHHHHHHHHV
           VHHHMMMMMMMMMMMMMHHHHHHHHHHHHHV
